<svg xmlns="http://www.w3.org/2000/svg" width="211.063" height="259.351" viewBox="0 0 211.063 259.351">
  <g id="Group_398" data-name="Group 398" transform="translate(-14821.854 -9024)">
    <g id="Group_381" data-name="Group 381">
      <rect id="Rectangle_187" data-name="Rectangle 187" width="119.354" height="8.639" transform="translate(14888.246 9043.36)" fill="#d4b7b9"/>
    </g>
    <g id="Group_382" data-name="Group 382">
      <rect id="Rectangle_188" data-name="Rectangle 188" width="120.56" height="8.639" transform="translate(14887.647 9209.231)" fill="#d4b7b9"/>
    </g>
    <g id="Group_389" data-name="Group 389">
      <g id="Group_383" data-name="Group 383">
        <path id="Path_490" data-name="Path 490" d="M14972.59,9130.4h-46.068l-9.44-43.155,65.059,6.378Zm-39.118-8.639h32.438l5.332-20.528-43.186-4.235Z" fill="#d4b7b9"/>
      </g>
      <g id="Group_384" data-name="Group 384">
        <rect id="Rectangle_189" data-name="Rectangle 189" width="26.211" height="8.639" transform="translate(14932.409 9138.739)" fill="#d4b7b9"/>
      </g>
      <g id="Group_385" data-name="Group 385">
        <path id="Path_491" data-name="Path 491" d="M14968.2,9156.928a12.811,12.811,0,1,1,12.814-12.806A12.828,12.828,0,0,1,14968.2,9156.928Zm0-16.981a4.171,4.171,0,1,0,4.176,4.176A4.18,4.18,0,0,0,14968.2,9139.946Z" fill="#d4b7b9"/>
      </g>
      <g id="Group_386" data-name="Group 386">
        <path id="Path_492" data-name="Path 492" d="M14923.627,9156.928a12.811,12.811,0,1,1,12.806-12.806A12.821,12.821,0,0,1,14923.627,9156.928Zm0-16.981a4.171,4.171,0,1,0,4.168,4.176A4.178,4.178,0,0,0,14923.627,9139.946Z" fill="#d4b7b9"/>
      </g>
      <g id="Group_387" data-name="Group 387">
        <rect id="Rectangle_190" data-name="Rectangle 190" width="12.283" height="8.641" transform="matrix(0.545, -0.839, 0.839, 0.545, 14919.683, 9134.025)" fill="#d4b7b9"/>
      </g>
      <g id="Group_388" data-name="Group 388">
        <rect id="Rectangle_191" data-name="Rectangle 191" width="8.638" height="17.043" transform="translate(14907.462 9083.119) rotate(-44.98)" fill="#d4b7b9"/>
      </g>
    </g>
    <g id="Group_390" data-name="Group 390">
      <rect id="Rectangle_192" data-name="Rectangle 192" width="52.346" height="8.639" transform="translate(14921.755 9186.8)" fill="#d4b7b9"/>
    </g>
    <g id="Group_391" data-name="Group 391">
      <rect id="Rectangle_193" data-name="Rectangle 193" width="7.466" height="7.474" transform="translate(14944.186 9223.261)" fill="#d4b7b9"/>
    </g>
    <g id="Group_396" data-name="Group 396">
      <g id="Group_392" data-name="Group 392">
        <rect id="Rectangle_194" data-name="Rectangle 194" width="7.474" height="7.479" transform="translate(14921.755 9174.724)" fill="#d4b7b9"/>
      </g>
      <g id="Group_393" data-name="Group 393">
        <rect id="Rectangle_195" data-name="Rectangle 195" width="7.474" height="7.479" transform="translate(14936.712 9174.724)" fill="#d4b7b9"/>
      </g>
      <g id="Group_394" data-name="Group 394">
        <rect id="Rectangle_196" data-name="Rectangle 196" width="7.483" height="7.479" transform="translate(14951.652 9174.724)" fill="#d4b7b9"/>
      </g>
      <g id="Group_395" data-name="Group 395">
        <rect id="Rectangle_197" data-name="Rectangle 197" width="7.491" height="7.479" transform="translate(14966.609 9174.724)" fill="#d4b7b9"/>
      </g>
    </g>
    <path id="Path_493" data-name="Path 493" d="M14875.39,9283.351l-53.536-60.5,3.24-2.858c5.373-4.754,15.4-15.814,17.7-20.771,1.67-3.59,4.26-31.214,3.745-43.745-.4-9.415,2.793-19.433,6.175-30.041,3.552-11.132,7.222-22.646,6.319-33.091-1.806-20.892-1.586-26.771,4.623-32.087a14.2,14.2,0,0,1,13.009-2.708c6.2,1.6,11.405,6.6,13.927,13.355,2.455,6.584,2.937,25.827,2.937,56.834h-8.639c0-15.389,0-47.4-2.4-53.818-1.536-4.117-4.522-7.112-8-8.006a5.771,5.771,0,0,0-5.222.907c-2.5,2.142-3.441,3.842-1.637,24.78,1.046,12.164-2.885,24.516-6.689,36.456-3.147,9.858-6.108,19.167-5.779,27.06.49,11.844-1.788,41.847-4.538,47.748-2.606,5.615-10.917,14.962-16.67,20.631l42.214,47.7a176.788,176.788,0,0,1,16.729-12.271l1.628-1.084c6.2-4.125,13.438-6.209,21.106-8.415,9.686-2.788,20.66-5.951,31.974-13.961l4.994,7.052c-12.512,8.858-24.237,12.233-34.579,15.211-7.307,2.1-13.625,3.923-18.7,7.3l-1.653,1.1a161.053,161.053,0,0,0-19.049,14.359Z" fill="#d4b7b9"/>
    <path id="Path_494" data-name="Path 494" d="M15014.062,9132.581h-10.756a18.854,18.854,0,0,1,0-37.709h10.756a18.854,18.854,0,1,1,0,37.709Zm-10.756-29.071a10.216,10.216,0,0,0,0,20.433h10.756a10.216,10.216,0,1,0,0-20.433Z" fill="#d4b7b9"/>
    <path id="Path_495" data-name="Path 495" d="M15012.215,9158.075h-7.053a16.944,16.944,0,0,1,0-33.889h7.053a16.944,16.944,0,0,1,0,33.889Zm-7.053-25.249a8.3,8.3,0,0,0,0,16.609h7.053a8.3,8.3,0,0,0,0-16.609Z" fill="#d4b7b9"/>
    <g id="Group_397" data-name="Group 397">
      <path id="Path_496" data-name="Path 496" d="M15010.35,9176.478h-3.323a11.255,11.255,0,0,1-4.7-1.042v59.239h-108.8V9032.639h108.8v66.653c.329-.025.641-.1.978-.1h7.66V9024h-126.077v219.313h126.077v-66.9C15010.755,9176.428,15010.561,9176.478,15010.35,9176.478Z" fill="#d4b7b9"/>
    </g>
    <path id="Path_497" data-name="Path 497" d="M15010.35,9180.8h-3.323a15.681,15.681,0,0,1,0-31.361h3.323a15.681,15.681,0,1,1,0,31.361Zm-3.323-22.722a7.042,7.042,0,0,0,0,14.084h3.323a7.042,7.042,0,1,0,0-14.084Z" fill="#d4b7b9"/>
  </g>
</svg>

